<svg width="64" height="64" viewBox="0 0 64 64" fill="none" xmlns="http://www.w3.org/2000/svg">
<path fill-rule="evenodd" clip-rule="evenodd" d="M19.2 4.26672C19.7658 4.26672 20.3084 4.49148 20.7085 4.89156C21.1086 5.29164 21.3333 5.83426 21.3333 6.40006V8.53339H42.6667V6.40006C42.6667 5.83426 42.8914 5.29164 43.2915 4.89156C43.6916 4.49148 44.2342 4.26672 44.8 4.26672C45.3658 4.26672 45.9084 4.49148 46.3085 4.89156C46.7086 5.29164 46.9333 5.83426 46.9333 6.40006V8.53339H53.3333C55.0307 8.53339 56.6586 9.20767 57.8588 10.4079C59.059 11.6081 59.7333 13.236 59.7333 14.9334V53.3334C59.7333 55.0308 59.059 56.6586 57.8588 57.8589C56.6586 59.0591 55.0307 59.7334 53.3333 59.7334H10.6667C8.96928 59.7334 7.34141 59.0591 6.14118 57.8589C4.94095 56.6586 4.26666 55.0308 4.26666 53.3334V14.9334C4.26666 13.236 4.94095 11.6081 6.14118 10.4079C7.34141 9.20767 8.96928 8.53339 10.6667 8.53339H17.0667V6.40006C17.0667 5.83426 17.2914 5.29164 17.6915 4.89156C18.0916 4.49148 18.6342 4.26672 19.2 4.26672ZM42.6667 12.8001V14.9334C42.6667 15.4992 42.8914 16.0418 43.2915 16.4419C43.6916 16.842 44.2342 17.0667 44.8 17.0667C45.3658 17.0667 45.9084 16.842 46.3085 16.4419C46.7086 16.0418 46.9333 15.4992 46.9333 14.9334V12.8001H53.3333C53.8991 12.8001 54.4418 13.0248 54.8418 13.4249C55.2419 13.825 55.4667 14.3676 55.4667 14.9334V21.3334H8.53333V14.9334C8.53333 14.3676 8.75809 13.825 9.15817 13.4249C9.55825 13.0248 10.1009 12.8001 10.6667 12.8001H17.0667V14.9334C17.0667 15.4992 17.2914 16.0418 17.6915 16.4419C18.0916 16.842 18.6342 17.0667 19.2 17.0667C19.7658 17.0667 20.3084 16.842 20.7085 16.4419C21.1086 16.0418 21.3333 15.4992 21.3333 14.9334V12.8001H42.6667ZM8.53333 25.6001V53.3334C8.53333 53.8992 8.75809 54.4418 9.15817 54.8419C9.55825 55.242 10.1009 55.4667 10.6667 55.4667H53.3333C53.8991 55.4667 54.4418 55.242 54.8418 54.8419C55.2419 54.4418 55.4667 53.8992 55.4667 53.3334V25.6001H8.53333ZM29.8667 32.0001C29.8667 31.4343 30.0914 30.8916 30.4915 30.4916C30.8916 30.0915 31.4342 29.8667 32 29.8667C32.5658 29.8667 33.1084 30.0915 33.5085 30.4916C33.9086 30.8916 34.1333 31.4343 34.1333 32.0001C34.1333 32.5659 33.9086 33.1085 33.5085 33.5086C33.1084 33.9086 32.5658 34.1334 32 34.1334C31.4342 34.1334 30.8916 33.9086 30.4915 33.5086C30.0914 33.1085 29.8667 32.5659 29.8667 32.0001ZM40.5333 29.8667C39.9675 29.8667 39.4249 30.0915 39.0248 30.4916C38.6248 30.8916 38.4 31.4343 38.4 32.0001C38.4 32.5659 38.6248 33.1085 39.0248 33.5086C39.4249 33.9086 39.9675 34.1334 40.5333 34.1334C41.0991 34.1334 41.6417 33.9086 42.0418 33.5086C42.4419 33.1085 42.6667 32.5659 42.6667 32.0001C42.6667 31.4343 42.4419 30.8916 42.0418 30.4916C41.6417 30.0915 41.0991 29.8667 40.5333 29.8667ZM46.9333 32.0001C46.9333 31.4343 47.1581 30.8916 47.5582 30.4916C47.9582 30.0915 48.5009 29.8667 49.0667 29.8667C49.6325 29.8667 50.1751 30.0915 50.5752 30.4916C50.9752 30.8916 51.2 31.4343 51.2 32.0001C51.2 32.5659 50.9752 33.1085 50.5752 33.5086C50.1751 33.9086 49.6325 34.1334 49.0667 34.1334C48.5009 34.1334 47.9582 33.9086 47.5582 33.5086C47.1581 33.1085 46.9333 32.5659 46.9333 32.0001ZM49.0667 38.4001C48.5009 38.4001 47.9582 38.6248 47.5582 39.0249C47.1581 39.425 46.9333 39.9676 46.9333 40.5334C46.9333 41.0992 47.1581 41.6418 47.5582 42.0419C47.9582 42.442 48.5009 42.6667 49.0667 42.6667C49.6325 42.6667 50.1751 42.442 50.5752 42.0419C50.9752 41.6418 51.2 41.0992 51.2 40.5334C51.2 39.9676 50.9752 39.425 50.5752 39.0249C50.1751 38.6248 49.6325 38.4001 49.0667 38.4001ZM38.4 40.5334C38.4 39.9676 38.6248 39.425 39.0248 39.0249C39.4249 38.6248 39.9675 38.4001 40.5333 38.4001C41.0991 38.4001 41.6417 38.6248 42.0418 39.0249C42.4419 39.425 42.6667 39.9676 42.6667 40.5334C42.6667 41.0992 42.4419 41.6418 42.0418 42.0419C41.6417 42.442 41.0991 42.6667 40.5333 42.6667C39.9675 42.6667 39.4249 42.442 39.0248 42.0419C38.6248 41.6418 38.4 41.0992 38.4 40.5334ZM32 38.4001C31.4342 38.4001 30.8916 38.6248 30.4915 39.0249C30.0914 39.425 29.8667 39.9676 29.8667 40.5334C29.8667 41.0992 30.0914 41.6418 30.4915 42.0419C30.8916 42.442 31.4342 42.6667 32 42.6667C32.5658 42.6667 33.1084 42.442 33.5085 42.0419C33.9086 41.6418 34.1333 41.0992 34.1333 40.5334C34.1333 39.9676 33.9086 39.425 33.5085 39.0249C33.1084 38.6248 32.5658 38.4001 32 38.4001ZM21.3333 40.5334C21.3333 39.9676 21.5581 39.425 21.9582 39.0249C22.3582 38.6248 22.9009 38.4001 23.4667 38.4001C24.0325 38.4001 24.5751 38.6248 24.9752 39.0249C25.3752 39.425 25.6 39.9676 25.6 40.5334C25.6 41.0992 25.3752 41.6418 24.9752 42.0419C24.5751 42.442 24.0325 42.6667 23.4667 42.6667C22.9009 42.6667 22.3582 42.442 21.9582 42.0419C21.5581 41.6418 21.3333 41.0992 21.3333 40.5334ZM14.9333 38.4001C14.3675 38.4001 13.8249 38.6248 13.4248 39.0249C13.0248 39.425 12.8 39.9676 12.8 40.5334C12.8 41.0992 13.0248 41.6418 13.4248 42.0419C13.8249 42.442 14.3675 42.6667 14.9333 42.6667C15.4991 42.6667 16.0417 42.442 16.4418 42.0419C16.8419 41.6418 17.0667 41.0992 17.0667 40.5334C17.0667 39.9676 16.8419 39.425 16.4418 39.0249C16.0417 38.6248 15.4991 38.4001 14.9333 38.4001ZM12.8 49.0667C12.8 48.5009 13.0248 47.9583 13.4248 47.5582C13.8249 47.1582 14.3675 46.9334 14.9333 46.9334C15.4991 46.9334 16.0417 47.1582 16.4418 47.5582C16.8419 47.9583 17.0667 48.5009 17.0667 49.0667C17.0667 49.6325 16.8419 50.1751 16.4418 50.5752C16.0417 50.9753 15.4991 51.2001 14.9333 51.2001C14.3675 51.2001 13.8249 50.9753 13.4248 50.5752C13.0248 50.1751 12.8 49.6325 12.8 49.0667ZM23.4667 46.9334C22.9009 46.9334 22.3582 47.1582 21.9582 47.5582C21.5581 47.9583 21.3333 48.5009 21.3333 49.0667C21.3333 49.6325 21.5581 50.1751 21.9582 50.5752C22.3582 50.9753 22.9009 51.2001 23.4667 51.2001C24.0325 51.2001 24.5751 50.9753 24.9752 50.5752C25.3752 50.1751 25.6 49.6325 25.6 49.0667C25.6 48.5009 25.3752 47.9583 24.9752 47.5582C24.5751 47.1582 24.0325 46.9334 23.4667 46.9334ZM29.8667 49.0667C29.8667 48.5009 30.0914 47.9583 30.4915 47.5582C30.8916 47.1582 31.4342 46.9334 32 46.9334C32.5658 46.9334 33.1084 47.1582 33.5085 47.5582C33.9086 47.9583 34.1333 48.5009 34.1333 49.0667C34.1333 49.6325 33.9086 50.1751 33.5085 50.5752C33.1084 50.9753 32.5658 51.2001 32 51.2001C31.4342 51.2001 30.8916 50.9753 30.4915 50.5752C30.0914 50.1751 29.8667 49.6325 29.8667 49.0667ZM40.5333 46.9334C39.9675 46.9334 39.4249 47.1582 39.0248 47.5582C38.6248 47.9583 38.4 48.5009 38.4 49.0667C38.4 49.6325 38.6248 50.1751 39.0248 50.5752C39.4249 50.9753 39.9675 51.2001 40.5333 51.2001C41.0991 51.2001 41.6417 50.9753 42.0418 50.5752C42.4419 50.1751 42.6667 49.6325 42.6667 49.0667C42.6667 48.5009 42.4419 47.9583 42.0418 47.5582C41.6417 47.1582 41.0991 46.9334 40.5333 46.9334Z" fill="black"/>
</svg>
